%YAML 1.1
%TAG !u! tag:unity3d.com,2011:
--- !u!1045 &1
EditorBuildSettings:
  m_ObjectHideFlags: 0
  serializedVersion: 2
  m_Scenes:
  - enabled: 1
    path: Assets/scenes/title_scene.unity
    guid: a9734d972bbbf4150be5076be376e2de
  - enabled: 1
    path: Assets/scenes/sandbox_scene.unity
    guid: a7998c38292bc4f72b67e06eb9e56b8a
  - enabled: 1
    path: Assets/scenes/main_scene.unity
    guid: 8d300c4a6f0eb4ac6946df5b20270548
  - enabled: 1
    path: Assets/scenes/game_over_scene.unity
    guid: 3199e9cdbb6d74d7e9522ab67f390fcf
